// =============================================================================
// Scilab ( https://www.scilab.org/ ) - This file is part of Scilab
// Copyright (C) 2011 - DIGITEO - Allan CORNET
//
//  This file is distributed under the same license as the Scilab package.
// =============================================================================
//
// <-- CLI SHELL MODE -->
//
// <-- Non-regression test for bug 9034 -->
//
// <-- GitLab URL -->
// https://gitlab.com/scilab/scilab/-/issues/9034
//
// <-- Short Description -->
// atomsVersionCompare failed on version with '-0'
load("SCI/modules/atoms/macros/atoms_internals/lib");
if atomsVersionCompare("1.46-0"      ,"1.46") <> 0 then bugmes();quit;end
if atomsVersionCompare("1.4-1"      ,"1.4")       <>  1 then bugmes();quit;end
if atomsVersionCompare("1.4-1"      ,"1.4-3")     <> -1 then bugmes();quit;end
if atomsVersionCompare("1.4-10"     ,"1.4-3")     <>  1 then bugmes();quit;end
if atomsVersionCompare("1.5-1"      ,"1.4-3")     <>  1 then bugmes();quit;end
A = ["1.4-1";"1.4-3";"1.4.0-2";"1.4-10";"1.5-2";"1.4"];
B = [   -1  ;   1   ;    0    ;    1   ;   1   ;  -1 ];
if or( atomsVersionCompare(A,"1.4-2")<>B ) then bugmes();quit;end
