// =============================================================================
// Scilab ( https://www.scilab.org/ ) - This file is part of Scilab
// Copyright (C) 2023 - Dassault Systemes - Bruno JOFRET <bruno.jofret@3ds.com>
//
//  This file is distributed under the same license as the Scilab package.
// =============================================================================
// <-- CLI SHELL MODE -->
// <-- ENGLISH IMPOSED -->
load("SCI/modules/atoms/macros/atoms_internals/lib");
exec("SCI/modules/atoms/tests/unit_tests/atomsTestUtils.sce");
// If previous test did not end properly, restore, else backup config file
atomsRestoreConfig(%T);
atomsSaveConfig();
// Force config
atomsSetConfig("autoloadAddAfterInstall", "False");
atomsSetConfig("Verbose", "False");
atomsSetConfig("offLine", "False");
atomsRepositoryReset();
Scanning repository file://TMPDIR/sample ... Done
// Load the 1st scenario : See scene10.test.atoms.scilab.org.txt
// =============================================================================
atomsLoadTestScene("scene10");
Scanning repository file://TMPDIR/scene10 ... Done
atomsList();
toolbox_1V6 - I'm Toolbox 1 1.0 for Scilab
toolbox_2V6 - I'm Toolbox 2 2.0 for Scilab
toolbox_3V6 - I'm Toolbox 3 1.0 for Scilab
toolbox_4V6 - I'm Toolbox 4 1.0 for Scilab
toolbox_5V6 - I'm Toolbox 5 1.0-1 for Scilab
toolbox_6V6 - I'm Toolbox 6 1.0-1 for Scilab
// Restore original values
// =============================================================================
atomsRestoreConfig(%T);
