// =============================================================================
// Scilab ( https://www.scilab.org/ ) - This file is part of Scilab
// Copyright (C) 2009 - DIGITEO - Pierre MARECHAL <pierre.marechal@scilab.org>
//
//  This file is distributed under the same license as the Scilab package.
// =============================================================================
// <-- ENGLISH IMPOSED -->
// <-- CLI SHELL MODE -->
load("SCI/modules/atoms/macros/atoms_internals/lib");
exec("SCI/modules/atoms/tests/unit_tests/atomsTestUtils.sce");
// If previous test did not end properly, restore, else backup config file
atomsRestoreConfig(%T);
atomsSaveConfig();
// Do not use the autoload system
atomsSetConfig("autoloadAddAfterInstall","False");
atomsSetConfig("Verbose" ,"False");
// Load the 1st scenario : See scene10.test.atoms.scilab.org.txt
atomsLoadTestScene("scene10");
Scanning repository file://TMPDIR/scene10 ... Done
// Install toolbox 5
atomsInstall("toolbox_5V6");
// Show the dependency tree
atomsDepTreeShow("toolbox_5V6");
    toolbox_5V6 - 1.0-1
    `-- toolbox_4V6 - 1.0-1
        `-- toolbox_2V6 - 1.0-1
            `-- toolbox_1V6 - 1.0-1
// Load the 2nd scenario : See scene11.test.atoms.scilab.org.txt
atomsLoadTestScene("scene11");
Scanning repository file://TMPDIR/scene11 ... Done
// Update modules
atomsUpdate();
// Show the dependency tree
atomsDepTreeShow("toolbox_5V6");
    toolbox_5V6 - 1.0-1
    `-- toolbox_4V6 - 1.1-1
        `-- toolbox_2V6 - 1.0-1
            `-- toolbox_1V6 - 1.0-1
// Remove toolbox 5
atomsRemove("toolbox_5V6");
// Restore original values
// =============================================================================
atomsRestoreConfig(%T);
atomsRepositorySetOfl(mgetl(SCI+"/modules/atoms/tests/unit_tests/repositories.orig"));
Scanning repository https://atoms.scilab.org/2023.0/TOOLBOXES/64 ... Done
