// =============================================================================
// Scilab ( https://www.scilab.org/ ) - This file is part of Scilab
// Copyright (C) 2009 - INRIA - Serge Steer
//
//  This file is distributed under the same license as the Scilab package.
// =============================================================================
//
// <-- CLI SHELL MODE -->
// <-- Non-regression test for bug 2509 -->
//
// <-- GitLab URL -->
// https://gitlab.com/scilab/scilab/-/issues/2509
//
// <-- Short Description -->
// execstr forgets to store the function name and line number when in the errcatch mode
prot=funcprot();funcprot(0);
//uncompiled macros
deff("foo","a=aaaa")
if execstr("foo()","errcatch")==0 then bugmes();quit;end
[str,n,l,f]=lasterror(%t);
if l<>2|f<>"foo" then bugmes();quit;end
try
    foo();
catch
    [str,n,l,f]=lasterror(%t);
    if l<>2|f<>"foo" then bugmes();quit;end;
end
if exec(foo,"errcatch")==0 then bugmes();quit;end
[str,n,l,f]=lasterror(%t);
if l<>2|f<>"foo" then bugmes();quit;end
//compiled macros
deff("foo","a=aaaa")
if execstr("foo()","errcatch")==0 then bugmes();quit;end
[str,n,l,f]=lasterror(%t);
if l<>2|f<>"foo" then bugmes();quit;end
try
    foo();
catch
    [str,n,l,f]=lasterror(%t);
    if l<>2|f<>"foo" then bugmes();quit;end;
end
if exec(foo,"errcatch")==0 then bugmes();quit;end
[str,n,l,f]=lasterror(%t);
if l<>2|f<>"foo" then bugmes();quit;end
//scripts
foo=["a=1";"a=aaaa"];
if execstr(foo,"errcatch")==0 then bugmes();quit;end
[str,n,l,f]=lasterror(%t);
if l<>2|f<>"" then bugmes();quit;end
//complex situations
deff("foo","execstr(''a=aaaa'')")
if execstr("foo()","errcatch")==0 then bugmes();quit;end
[str,n,l,f]=lasterror(%t);
if l<>1|f<>"foo" then bugmes();quit;end
funcprot(prot);
